-------------------------------------------------------------------------------
Test set: TestSuite
-------------------------------------------------------------------------------
Tests run: 32, Failures: 0, Errors: 0, Skipped: 0, Time elapsed: 5.27 sec - in TestSuite
